﻿papers_id,name,course_id
"101","Sem-1","1100"
"102","Sem-2","1100"
"103","Sem-3","1100"
"104","Sem-4","1100"
"105","Sem-5","1100"
"106","Sem-6","1100"
"107","Sem-1","1101"
"108","Sem-2","1101"
"109","Sem-3","1101"
"110","Sem-4","1101"
"111","Sem-5","1101"
"112","Sem-6","1101"
